%YAML 1.1
%TAG !u! tag:unity3d.com,2011:
--- !u!1 &8725129180995010249
GameObject:
  m_ObjectHideFlags: 0
  m_CorrespondingSourceObject: {fileID: 0}
  m_PrefabInstance: {fileID: 0}
  m_PrefabAsset: {fileID: 0}
  serializedVersion: 6
  m_Component:
  - component: {fileID: 6109820312531916578}
  - component: {fileID: 3439537518572912238}
  - component: {fileID: 6155891764834206777}
  m_Layer: 31
  m_Name: Layer1
  m_TagString: Untagged
  m_Icon: {fileID: 0}
  m_NavMeshLayer: 0
  m_StaticEditorFlags: 0
  m_IsActive: 1
--- !u!4 &6109820312531916578
Transform:
  m_ObjectHideFlags: 0
  m_CorrespondingSourceObject: {fileID: 0}
  m_PrefabInstance: {fileID: 0}
  m_PrefabAsset: {fileID: 0}
  m_GameObject: {fileID: 8725129180995010249}
  m_LocalRotation: {x: -0, y: -0, z: -0, w: 1}
  m_LocalPosition: {x: 0, y: 0, z: 0}
  m_LocalScale: {x: 1, y: 1, z: 1}
  m_Children: []
  m_Father: {fileID: 3283094507806462385}
  m_RootOrder: 0
  m_LocalEulerAnglesHint: {x: 0, y: 0, z: 0}
--- !u!1839735485 &3439537518572912238
Tilemap:
  m_ObjectHideFlags: 0
  m_CorrespondingSourceObject: {fileID: 0}
  m_PrefabInstance: {fileID: 0}
  m_PrefabAsset: {fileID: 0}
  m_GameObject: {fileID: 8725129180995010249}
  m_Enabled: 1
  m_Tiles:
  - first: {x: -3, y: -1, z: 0}
    second:
      serializedVersion: 2
      m_TileIndex: 12
      m_TileSpriteIndex: 12
      m_TileMatrixIndex: 0
      m_TileColorIndex: 0
      m_TileObjectToInstantiateIndex: 65535
      m_AllTileFlags: 1073741825
  - first: {x: -2, y: -1, z: 0}
    second:
      serializedVersion: 2
      m_TileIndex: 13
      m_TileSpriteIndex: 13
      m_TileMatrixIndex: 0
      m_TileColorIndex: 0
      m_TileObjectToInstantiateIndex: 65535
      m_AllTileFlags: 1073741825
  - first: {x: -1, y: -1, z: 0}
    second:
      serializedVersion: 2
      m_TileIndex: 14
      m_TileSpriteIndex: 14
      m_TileMatrixIndex: 0
      m_TileColorIndex: 0
      m_TileObjectToInstantiateIndex: 65535
      m_AllTileFlags: 1073741825
  - first: {x: 0, y: -1, z: 0}
    second:
      serializedVersion: 2
      m_TileIndex: 15
      m_TileSpriteIndex: 15
      m_TileMatrixIndex: 0
      m_TileColorIndex: 0
      m_TileObjectToInstantiateIndex: 65535
      m_AllTileFlags: 1073741825
  - first: {x: 1, y: -1, z: 0}
    second:
      serializedVersion: 2
      m_TileIndex: 16
      m_TileSpriteIndex: 16
      m_TileMatrixIndex: 0
      m_TileColorIndex: 0
      m_TileObjectToInstantiateIndex: 65535
      m_AllTileFlags: 1073741825
  - first: {x: 2, y: -1, z: 0}
    second:
      serializedVersion: 2
      m_TileIndex: 17
      m_TileSpriteIndex: 17
      m_TileMatrixIndex: 0
      m_TileColorIndex: 0
      m_TileObjectToInstantiateIndex: 65535
      m_AllTileFlags: 1073741825
  - first: {x: -3, y: 0, z: 0}
    second:
      serializedVersion: 2
      m_TileIndex: 6
      m_TileSpriteIndex: 6
      m_TileMatrixIndex: 0
      m_TileColorIndex: 0
      m_TileObjectToInstantiateIndex: 65535
      m_AllTileFlags: 1073741825
  - first: {x: -2, y: 0, z: 0}
    second:
      serializedVersion: 2
      m_TileIndex: 7
      m_TileSpriteIndex: 7
      m_TileMatrixIndex: 0
      m_TileColorIndex: 0
      m_TileObjectToInstantiateIndex: 65535
      m_AllTileFlags: 1073741825
  - first: {x: -1, y: 0, z: 0}
    second:
      serializedVersion: 2
      m_TileIndex: 8
      m_TileSpriteIndex: 8
      m_TileMatrixIndex: 0
      m_TileColorIndex: 0
      m_TileObjectToInstantiateIndex: 65535
      m_AllTileFlags: 1073741825
  - first: {x: 0, y: 0, z: 0}
    second:
      serializedVersion: 2
      m_TileIndex: 9
      m_TileSpriteIndex: 9
      m_TileMatrixIndex: 0
      m_TileColorIndex: 0
      m_TileObjectToInstantiateIndex: 65535
      m_AllTileFlags: 1073741825
  - first: {x: 1, y: 0, z: 0}
    second:
      serializedVersion: 2
      m_TileIndex: 10
      m_TileSpriteIndex: 10
      m_TileMatrixIndex: 0
      m_TileColorIndex: 0
      m_TileObjectToInstantiateIndex: 65535
      m_AllTileFlags: 1073741825
  - first: {x: 2, y: 0, z: 0}
    second:
      serializedVersion: 2
      m_TileIndex: 11
      m_TileSpriteIndex: 11
      m_TileMatrixIndex: 0
      m_TileColorIndex: 0
      m_TileObjectToInstantiateIndex: 65535
      m_AllTileFlags: 1073741825
  - first: {x: -3, y: 1, z: 0}
    second:
      serializedVersion: 2
      m_TileIndex: 0
      m_TileSpriteIndex: 0
      m_TileMatrixIndex: 0
      m_TileColorIndex: 0
      m_TileObjectToInstantiateIndex: 65535
      m_AllTileFlags: 1073741825
  - first: {x: -2, y: 1, z: 0}
    second:
      serializedVersion: 2
      m_TileIndex: 1
      m_TileSpriteIndex: 1
      m_TileMatrixIndex: 0
      m_TileColorIndex: 0
      m_TileObjectToInstantiateIndex: 65535
      m_AllTileFlags: 1073741825
  - first: {x: -1, y: 1, z: 0}
    second:
      serializedVersion: 2
      m_TileIndex: 2
      m_TileSpriteIndex: 2
      m_TileMatrixIndex: 0
      m_TileColorIndex: 0
      m_TileObjectToInstantiateIndex: 65535
      m_AllTileFlags: 1073741825
  - first: {x: 0, y: 1, z: 0}
    second:
      serializedVersion: 2
      m_TileIndex: 3
      m_TileSpriteIndex: 3
      m_TileMatrixIndex: 0
      m_TileColorIndex: 0
      m_TileObjectToInstantiateIndex: 65535
      m_AllTileFlags: 1073741825
  - first: {x: 1, y: 1, z: 0}
    second:
      serializedVersion: 2
      m_TileIndex: 4
      m_TileSpriteIndex: 4
      m_TileMatrixIndex: 0
      m_TileColorIndex: 0
      m_TileObjectToInstantiateIndex: 65535
      m_AllTileFlags: 1073741825
  - first: {x: 2, y: 1, z: 0}
    second:
      serializedVersion: 2
      m_TileIndex: 5
      m_TileSpriteIndex: 5
      m_TileMatrixIndex: 0
      m_TileColorIndex: 0
      m_TileObjectToInstantiateIndex: 65535
      m_AllTileFlags: 1073741825
  m_AnimatedTiles: {}
  m_TileAssetArray:
  - m_RefCount: 1
    m_Data: {fileID: 11400000, guid: ffe74ed8fb1be2e4392634f5d28db953, type: 2}
  - m_RefCount: 1
    m_Data: {fileID: 11400000, guid: 9f9a170523d1b1d4f9a253f6bb13748a, type: 2}
  - m_RefCount: 1
    m_Data: {fileID: 11400000, guid: e1b930819d67e914d8d438a46ad5ab3a, type: 2}
  - m_RefCount: 1
    m_Data: {fileID: 11400000, guid: 48533bba9ae650d4e95f00bb14038187, type: 2}
  - m_RefCount: 1
    m_Data: {fileID: 11400000, guid: a567acdedf1016641912f27f030f1f1f, type: 2}
  - m_RefCount: 1
    m_Data: {fileID: 11400000, guid: 7be87c3fd34d5f04db99ecd941fba378, type: 2}
  - m_RefCount: 1
    m_Data: {fileID: 11400000, guid: 3ade7b632868c1c448fa0362007850a6, type: 2}
  - m_RefCount: 1
    m_Data: {fileID: 11400000, guid: 28869f21178050d459eca0802bad8220, type: 2}
  - m_RefCount: 1
    m_Data: {fileID: 11400000, guid: cc5d863b9e9143b4081e3deb64e87fab, type: 2}
  - m_RefCount: 1
    m_Data: {fileID: 11400000, guid: 862506da0969fd34ca6dc90da7ec6ae7, type: 2}
  - m_RefCount: 1
    m_Data: {fileID: 11400000, guid: 96c9b7068db093a40a13927b8bdf399c, type: 2}
  - m_RefCount: 1
    m_Data: {fileID: 11400000, guid: a94f2d95cbfb6e74995ff803921ef6f9, type: 2}
  - m_RefCount: 1
    m_Data: {fileID: 11400000, guid: 3a863f608f8442a4497d77db1aa779f4, type: 2}
  - m_RefCount: 1
    m_Data: {fileID: 11400000, guid: c67399281aff0ce4d92e7ed93f658f85, type: 2}
  - m_RefCount: 1
    m_Data: {fileID: 11400000, guid: 6fd9082c8a925bd4ab729987b1cfc15d, type: 2}
  - m_RefCount: 1
    m_Data: {fileID: 11400000, guid: 2b6318470c7ea4c48b785e9ca3a0956a, type: 2}
  - m_RefCount: 1
    m_Data: {fileID: 11400000, guid: d3020d70e91c4484aa4f916606a534b7, type: 2}
  - m_RefCount: 1
    m_Data: {fileID: 11400000, guid: bbc5c6a86f073c340b8e2b367a670870, type: 2}
  m_TileSpriteArray:
  - m_RefCount: 1
    m_Data: {fileID: 8939925220387067207, guid: ca9bcdb34a9373040809a1cdfeda81a6,
      type: 3}
  - m_RefCount: 1
    m_Data: {fileID: -130370946438558589, guid: ca9bcdb34a9373040809a1cdfeda81a6,
      type: 3}
  - m_RefCount: 1
    m_Data: {fileID: 8141026910547794470, guid: ca9bcdb34a9373040809a1cdfeda81a6,
      type: 3}
  - m_RefCount: 1
    m_Data: {fileID: 6167909959737827570, guid: ca9bcdb34a9373040809a1cdfeda81a6,
      type: 3}
  - m_RefCount: 1
    m_Data: {fileID: -9190308001092365281, guid: ca9bcdb34a9373040809a1cdfeda81a6,
      type: 3}
  - m_RefCount: 1
    m_Data: {fileID: 8680388388708076784, guid: ca9bcdb34a9373040809a1cdfeda81a6,
      type: 3}
  - m_RefCount: 1
    m_Data: {fileID: 7956114016999094774, guid: ca9bcdb34a9373040809a1cdfeda81a6,
      type: 3}
  - m_RefCount: 1
    m_Data: {fileID: 8304790031049383027, guid: ca9bcdb34a9373040809a1cdfeda81a6,
      type: 3}
  - m_RefCount: 1
    m_Data: {fileID: 7331309987142020381, guid: ca9bcdb34a9373040809a1cdfeda81a6,
      type: 3}
  - m_RefCount: 1
    m_Data: {fileID: 1149080042526474900, guid: ca9bcdb34a9373040809a1cdfeda81a6,
      type: 3}
  - m_RefCount: 1
    m_Data: {fileID: 3567845478483397464, guid: ca9bcdb34a9373040809a1cdfeda81a6,
      type: 3}
  - m_RefCount: 1
    m_Data: {fileID: 5903297497890379079, guid: ca9bcdb34a9373040809a1cdfeda81a6,
      type: 3}
  - m_RefCount: 1
    m_Data: {fileID: 2885048314927939101, guid: ca9bcdb34a9373040809a1cdfeda81a6,
      type: 3}
  - m_RefCount: 1
    m_Data: {fileID: 5325684003024863638, guid: ca9bcdb34a9373040809a1cdfeda81a6,
      type: 3}
  - m_RefCount: 1
    m_Data: {fileID: -2881672745880034260, guid: ca9bcdb34a9373040809a1cdfeda81a6,
      type: 3}
  - m_RefCount: 1
    m_Data: {fileID: 1782540159630973436, guid: ca9bcdb34a9373040809a1cdfeda81a6,
      type: 3}
  - m_RefCount: 1
    m_Data: {fileID: 578070410739928164, guid: ca9bcdb34a9373040809a1cdfeda81a6, type: 3}
  - m_RefCount: 1
    m_Data: {fileID: 2493872327939715904, guid: ca9bcdb34a9373040809a1cdfeda81a6,
      type: 3}
  m_TileMatrixArray:
  - m_RefCount: 18
    m_Data:
      e00: 1
      e01: 0
      e02: 0
      e03: 0
      e10: 0
      e11: 1
      e12: 0
      e13: 0
      e20: 0
      e21: 0
      e22: 1
      e23: 0
      e30: 0
      e31: 0
      e32: 0
      e33: 1
  m_TileColorArray:
  - m_RefCount: 18
    m_Data: {r: 1, g: 1, b: 1, a: 1}
  m_TileObjectToInstantiateArray: []
  m_AnimationFrameRate: 1
  m_Color: {r: 1, g: 1, b: 1, a: 1}
  m_Origin: {x: -3, y: -1, z: 0}
  m_Size: {x: 6, y: 3, z: 1}
  m_TileAnchor: {x: 0.5, y: 0.5, z: 0}
  m_TileOrientation: 0
  m_TileOrientationMatrix:
    e00: 1
    e01: 0
    e02: 0
    e03: 0
    e10: 0
    e11: 1
    e12: 0
    e13: 0
    e20: 0
    e21: 0
    e22: 1
    e23: 0
    e30: 0
    e31: 0
    e32: 0
    e33: 1
--- !u!483693784 &6155891764834206777
TilemapRenderer:
  m_ObjectHideFlags: 0
  m_CorrespondingSourceObject: {fileID: 0}
  m_PrefabInstance: {fileID: 0}
  m_PrefabAsset: {fileID: 0}
  m_GameObject: {fileID: 8725129180995010249}
  m_Enabled: 0
  m_CastShadows: 0
  m_ReceiveShadows: 0
  m_DynamicOccludee: 0
  m_MotionVectors: 1
  m_LightProbeUsage: 0
  m_ReflectionProbeUsage: 0
  m_RayTracingMode: 0
  m_RenderingLayerMask: 1
  m_RendererPriority: 0
  m_Materials:
  - {fileID: 10754, guid: 0000000000000000f000000000000000, type: 0}
  m_StaticBatchInfo:
    firstSubMesh: 0
    subMeshCount: 0
  m_StaticBatchRoot: {fileID: 0}
  m_ProbeAnchor: {fileID: 0}
  m_LightProbeVolumeOverride: {fileID: 0}
  m_ScaleInLightmap: 1
  m_ReceiveGI: 1
  m_PreserveUVs: 0
  m_IgnoreNormalsForChartDetection: 0
  m_ImportantGI: 0
  m_StitchLightmapSeams: 1
  m_SelectedEditorRenderState: 0
  m_MinimumChartSize: 4
  m_AutoUVMaxDistance: 0.5
  m_AutoUVMaxAngle: 89
  m_LightmapParameters: {fileID: 0}
  m_SortingLayerID: 0
  m_SortingLayer: 0
  m_SortingOrder: 0
  m_ChunkSize: {x: 32, y: 32, z: 32}
  m_ChunkCullingBounds: {x: 0, y: 0, z: 0}
  m_MaxChunkCount: 16
  m_MaxFrameAge: 16
  m_SortOrder: 0
  m_Mode: 0
  m_DetectChunkCullingBounds: 0
  m_MaskInteraction: 0
--- !u!1 &9031183855253287667
GameObject:
  m_ObjectHideFlags: 0
  m_CorrespondingSourceObject: {fileID: 0}
  m_PrefabInstance: {fileID: 0}
  m_PrefabAsset: {fileID: 0}
  serializedVersion: 6
  m_Component:
  - component: {fileID: 3283094507806462385}
  - component: {fileID: 4177152476188822829}
  m_Layer: 31
  m_Name: RedHouse1
  m_TagString: Untagged
  m_Icon: {fileID: 0}
  m_NavMeshLayer: 0
  m_StaticEditorFlags: 0
  m_IsActive: 1
--- !u!4 &3283094507806462385
Transform:
  m_ObjectHideFlags: 0
  m_CorrespondingSourceObject: {fileID: 0}
  m_PrefabInstance: {fileID: 0}
  m_PrefabAsset: {fileID: 0}
  m_GameObject: {fileID: 9031183855253287667}
  m_LocalRotation: {x: 0, y: 0, z: 0, w: 1}
  m_LocalPosition: {x: 0, y: 0, z: 0}
  m_LocalScale: {x: 1, y: 1, z: 1}
  m_Children:
  - {fileID: 6109820312531916578}
  m_Father: {fileID: 0}
  m_RootOrder: 0
  m_LocalEulerAnglesHint: {x: 0, y: 0, z: 0}
--- !u!156049354 &4177152476188822829
Grid:
  m_ObjectHideFlags: 0
  m_CorrespondingSourceObject: {fileID: 0}
  m_PrefabInstance: {fileID: 0}
  m_PrefabAsset: {fileID: 0}
  m_GameObject: {fileID: 9031183855253287667}
  m_Enabled: 1
  m_CellSize: {x: 1, y: 1, z: 0}
  m_CellGap: {x: 0, y: 0, z: 0}
  m_CellLayout: 0
  m_CellSwizzle: 0
--- !u!114 &6779189666689642688
MonoBehaviour:
  m_ObjectHideFlags: 0
  m_CorrespondingSourceObject: {fileID: 0}
  m_PrefabInstance: {fileID: 0}
  m_PrefabAsset: {fileID: 0}
  m_GameObject: {fileID: 0}
  m_Enabled: 1
  m_EditorHideFlags: 0
  m_Script: {fileID: 12395, guid: 0000000000000000e000000000000000, type: 0}
  m_Name: Palette Settings
  m_EditorClassIdentifier: 
  cellSizing: 0
